30 Day Coding Challenge (2023) - 1 Part-to-whole
…
# simulate the data
set.seed(123)

data <- tibble(
  date = lubridate::ymd(paste("2023-04-", 1:30, sep = "")), 
  day = lubridate::wday(date, label = TRUE), 
  calories_total = rnorm(n = 30, mean = 3000, sd = 250), 
  prop_carbs = runif(n = 30, min = 0.45, max = 0.65), 
  prop_protein = runif(n = 30, min = 0.15, max = 0.20), 
  prop_fat = 1 - (prop_carbs + prop_protein)
  )
data

# A tibble: 30 × 6
   date       day   calories_total prop_carbs prop_protein prop_fat
   <date>     <ord>          <dbl>      <dbl>        <dbl>    <dbl>
 1 2023-04-01 Sat            2860.      0.583        0.157    0.260
 2 2023-04-02 Sun            2942.      0.469        0.183    0.348
 3 2023-04-03 Mon            3390.      0.527        0.167    0.306
 4 2023-04-04 Tue            3018.      0.505        0.183    0.312
 5 2023-04-05 Wed            3032.      0.613        0.166    0.221
 6 2023-04-06 Thu            3429.      0.540        0.159    0.301
 7 2023-04-07 Fri            3115.      0.612        0.189    0.199
 8 2023-04-08 Sat            2684.      0.612        0.155    0.233
 9 2023-04-09 Sun            2828.      0.609        0.173    0.218
10 2023-04-10 Mon            2889.      0.538        0.176    0.286
# … with 20 more rows

We can then use these proportions for each macro to calculate how many of the day’s total calories were from carbohydrates, protein, and fats. Once we have this we can remove the proportion columns.

data <- data %>% 
  mutate(calories_carbs = calories_total * prop_carbs, 
         calories_protein = calories_total * prop_protein, 
         calories_fat = calories_total * prop_fat) %>% 
  select(-starts_with("prop_"))
data 

# A tibble: 30 × 6
   date       day   calories_total calories_carbs calories_protein calories_fat
   <date>     <ord>          <dbl>          <dbl>            <dbl>        <dbl>
 1 2023-04-01 Sat            2860.          1667.             448.         745.
 2 2023-04-02 Sun            2942.          1380.             537.        1025.
 3 2023-04-03 Mon            3390.          1786.             567.        1037.
 4 2023-04-04 Tue            3018.          1524.             552.         942.
 5 2023-04-05 Wed            3032.          1859.             503.         670.
 6 2023-04-06 Thu            3429.          1851.             546.        1032.
 7 2023-04-07 Fri            3115.          1907.             589.         620.
 8 2023-04-08 Sat            2684.          1644.             415.         625.
 9 2023-04-09 Sun            2828.          1722.             490.         616.
10 2023-04-10 Mon            2889.          1554.             507.         827.
# … with 20 more rows

In order for us to do visualisations we need to change the calorie data into long format.

data <- data %>% 
  pivot_longer(calories_total:calories_fat, 
               names_to = "source") %>% 
  mutate(source = str_remove(source,"calories_"))
data

# A tibble: 120 × 4
   date       day   source  value
   <date>     <ord> <chr>   <dbl>
 1 2023-04-01 Sat   total   2860.
 2 2023-04-01 Sat   carbs   1667.
 3 2023-04-01 Sat   protein  448.
 4 2023-04-01 Sat   fat      745.
 5 2023-04-02 Sun   total   2942.
 6 2023-04-02 Sun   carbs   1380.
 7 2023-04-02 Sun   protein  537.
 8 2023-04-02 Sun   fat     1025.
 9 2023-04-03 Mon   total   3390.
10 2023-04-03 Mon   carbs   1786.
# … with 110 more rows
…
1.4 Grouping by day

Maybe you want to log how your macros vary on average by day. To do this, we group our data by the day of the week and calculate averages for each day and plot these. We need to briefly go back to wide data to calculate the relevant averages

day_data <- data %>% 
  pivot_wider(names_from = source, values_from = value) %>% 
  group_by(day) %>% 
  summarise(carbs = mean(carbs), 
            protein = mean(protein), 
            fat = mean(fat)) %>% 
  pivot_longer(carbs:fat, names_to = "source")
day_data

# A tibble: 21 × 3
   day   source  value
   <ord> <chr>   <dbl>
 1 Sun   carbs   1575.
 2 Sun   protein  536.
 3 Sun   fat      943.
 4 Mon   carbs   1674.
 5 Mon   protein  560.
 6 Mon   fat      821.
 7 Tue   carbs   1571.
 8 Tue   protein  532.
 9 Tue   fat      816.
10 Wed   carbs   1669.
# … with 11 more rows
…
