30 Day Coding Challenge (2023) - 2 Waffle
…
It only provdes the data from the top 21 locations, so this is what we will use. Let’s get it into R:

waffle_raw_data <- tibble(
  location = c("Atlanta", "Cartesville", "Greenville", "Athens", "Fort Worth", 
               "Nashville", "Griffin", "Commerce", "Mobile", "Louisville", 
               "Dallas", "Macon", "Bay Minette", "Charlotte", "Aiken", "Jackson", 
               "Raleigh", "Little Rock", "Gulfport", "Biloxi", "Pensacola"), 
  number = c(132, 45, 34, 29, 25, 24, 23, 20, 20, 18, 18, 
             18, 18, 17, 17, 17, 16, 16, 16, 16, 16)
) %>% 
  mutate(location = as_factor(location))
waffle_raw_data

# A tibble: 21 × 2
   location    number
   <fct>        <dbl>
 1 Atlanta        132
 2 Cartesville     45
 3 Greenville      34
 4 Athens          29
 5 Fort Worth      25
 6 Nashville       24
 7 Griffin         23
 8 Commerce        20
 9 Mobile          20
10 Louisville      18
# ℹ 11 more rows

To do a waffle plot, we need a tibble where each location is repeated n times, where n comes from the number column. We can do this using the uncount() function in the tidyr package (comes installed with the tidyverse):

waffle_data <- waffle_raw_data %>%
  uncount(weights = number, .remove = FALSE) 
waffle_data

# A tibble: 555 × 2
   location number
   <fct>     <dbl>
 1 Atlanta     132
 2 Atlanta     132
 3 Atlanta     132
 4 Atlanta     132
 5 Atlanta     132
 6 Atlanta     132
 7 Atlanta     132
 8 Atlanta     132
 9 Atlanta     132
10 Atlanta     132
# ℹ 545 more rows
Once we have this, we can use the ggwaffle package (link here). It uses the wonderfully titled waffle_iron() function to get the data into the right shape for the waffle plot. Or, to put it in the words of the package help file:

Pour your data into a waffle iron to get ready to cook a waffle chart.

Lovely stuff.

# devtools::install_github("liamgilbey/ggwaffle")
library(ggwaffle)

waffle_plot_data <- waffle_data %>% 
  waffle_iron(aes_d(group = location)) %>% 
  as_tibble()
waffle_plot_data

# A tibble: 555 × 3
       y     x group  
   <int> <int> <fct>  
 1     1     1 Atlanta
 2     2     1 Atlanta
 3     3     1 Atlanta
 4     4     1 Atlanta
 5     5     1 Atlanta
 6     6     1 Atlanta
 7     7     1 Atlanta
 8     8     1 Atlanta
 9     1     2 Atlanta
10     2     2 Atlanta
# ℹ 545 more rows
…
